1,Charles,Joseph,Bowers,663 Morgan St,Pensacola,FL,32507,850-457-0738,charles@example.com,Front-end Developer,79120
2,Mary,Julia,Davis,4838 Fowler Ave,Lawrenceville,GA,30245,770-277-5972,mary@example.com,Front-end Developer,85792
3,Rachel,Priscilla,Judd,3302 Coulter Ln,Richmond,VA,23223,804-307-1770,rachel@example.com,Senior Back-end Developer,114950
4,William,Paul,Harris,2151 Trails End Rd,West Palm Beach,FL,33401,954-332-4967,bill@example.com,Back-end Developer,89000
5,Patrick,Wade,Sanders,1012 Ruckman Rd,Oklahoma City,OK,73110,405-733-0098,patrick@example.com,Project Manager,132500